<?xml version="1.0" encoding="UTF-8"?>
<graphml xmlns="http://graphml.graphdrawing.org/xmlns" xmlns:xsi="http://www.w3.org/2001/XMLSchema-instance"
xsi:schemaLocation="http://graphml.graphdrawing.org/xmlns http://graphml.graphdrawing.org/xmlns/1.0/graphml.xsd">

<key id="d0" for="edge" attr.name="weight" attr.type="double">
<default>0.0</default>
</key>
<key id="d1" for="edge" attr.name="color" attr.type="string">
<default>black</default>
</key>
<key id="d2" for="node" attr.name="color" attr.type="string">
<default>#C0C0C0</default>
</key>
<graph id="G" edgedefault="undirected">
<node id="Eltern">
<data key="d2">#C0C040</data>
</node>
<node id="Lehrkräften">
<data key="d2">#C0C040</data>
</node>
<node id="Aushandlung">
<data key="d2">#C0C040</data>
</node>
<node id="Zielvereinbarungen">
<data key="d2">#C0C040</data>
</node>
<node id="Bildungsinstitut">
<data key="d2">#C0C040</data>
</node>
<node id="Sbi">
<data key="d2">#C0C040</data>
</node>
<node id="Sachsen">
<data key="d2">#C0C040</data>
</node>
<node id="Evaluation">
<data key="d2">#C0C040</data>
</node>
<node id="Lehrkräftemangels">
<data key="d2">#C0C040</data>
</node>
<node id="Schulen">
<data key="d2">#C0C040</data>
</node>
<node id="Weiterverarbeitung">
<data key="d2">#C0C040</data>
</node>
<node id="Evaluationsergebnisse">
<data key="d2">#C0C040</data>
</node>
<node id="Handlungskoordination">
<data key="d2">#C0C040</data>
</node>
<node id="Logik">
<data key="d2">#C0C040</data>
</node>
<node id="Instrument">
<data key="d2">#C0C040</data>
</node>
<node id="Steuerung">
<data key="d2">#C0C040</data>
</node>
<node id="Evaluierenden">
<data key="d2">#C0C040</data>
</node>
<node id="Wahrnehmung">
<data key="d2">#C0C040</data>
</node>
<node id="Abschluss">
<data key="d2">#C0C040</data>
</node>
<node id="Weiterentwicklung">
<data key="d2">#C0C040</data>
</node>
<node id="Potenzial">
<data key="d2">#C0C040</data>
</node>
<node id="Entwicklungsziele">
<data key="d2">#C0C040</data>
</node>
<node id="Autorinnen">
<data key="d2">#C0C040</data>
</node>
<node id="Studie">
<data key="d2">#C0C040</data>
</node>
<node id="Einstellung">
<data key="d2">#C0C040</data>
</node>
<node id="Abläufe">
<data key="d2">#C0C040</data>
</node>
<node id="Strukturen">
<data key="d2">#C0C040</data>
</node>
<node id="Artikel">
<data key="d2">#C0C040</data>
</node>
<node id="Schulwesen">
<data key="d2">#C0C040</data>
</node>
<node id="Impulse">
<data key="d2">#C0C040</data>
</node>
<node id="Verbesserung">
<data key="d2">#C0C040</data>
</node>
<node id="Rückmeldung">
<data key="d2">#C0C040</data>
</node>
<node id="Einschätzung">
<data key="d2">#C0C040</data>
</node>
<node id="Schulreferentinnen">
<data key="d2">#C0C040</data>
</node>
<node id="Ergebnisse">
<data key="d2">#C0C040</data>
</node>
<node id="Run-studie">
<data key="d2">#C0C040</data>
</node>
<node id="Trends">
<data key="d2">#C0C040</data>
</node>
<node id="Beobachtungen">
<data key="d2">#C0C040</data>
</node>
<node id="Verfahren">
<data key="d2">#C0C040</data>
</node>
<node id="Schülerinnen">
<data key="d2">#C0C040</data>
</node>
<node id="Leistungen">
<data key="d2">#C0C040</data>
</node>
<node id="Validität">
<data key="d2">#C0C040</data>
</node>
<node id="Schulreferenten">
<data key="d2">#C0C040</data>
</node>
<node id="Zusammenarbeit">
<data key="d2">#C0C040</data>
</node>
<node id="Akteure">
<data key="d2">#C0C040</data>
</node>
<node id="Einblick">
<data key="d2">#C0C040</data>
</node>
<node id="Fragestellung">
<data key="d2">#C0C040</data>
</node>
<node id="Fazit">
<data key="d2">#C0C040</data>
</node>
<node id="Eigenverantwortung">
<data key="d2">#C0C040</data>
</node>
<node id="Schulaufsicht">
<data key="d2">#C0C040</data>
</node>
<node id="Nutzung">
<data key="d2">#C0C040</data>
</node>
<node id="Schularten">
<data key="d2">#C0C040</data>
</node>
<node id="Regionalstellen">
<data key="d2">#C0C040</data>
</node>
<edge id="e0" source="Eltern" target="Lehrkräften">
<data key="d0">0.13953488372093</data>
<data key="d1">#0000cc</data>
</edge>
<edge id="e1" source="Aushandlung" target="Zielvereinbarungen">
<data key="d0">0.13953488372093</data>
<data key="d1">#0000cc</data>
</edge>
<edge id="e2" source="Bildungsinstitut" target="Sbi">
<data key="d0">0.13953488372093</data>
<data key="d1">#0000cc</data>
</edge>
<edge id="e3" source="Sachsen" target="Evaluation">
<data key="d0">0.265116279069767</data>
<data key="d1">#3b00cc</data>
</edge>
<edge id="e4" source="Sachsen" target="Lehrkräftemangels">
<data key="d0">0.13953488372093</data>
<data key="d1">#0000cc</data>
</edge>
<edge id="e5" source="Sachsen" target="Schulen">
<data key="d0">0.237209302325581</data>
<data key="d1">#2e00cc</data>
</edge>
<edge id="e6" source="Weiterverarbeitung" target="Evaluationsergebnisse">
<data key="d0">0.13953488372093</data>
<data key="d1">#0000cc</data>
</edge>
<edge id="e7" source="Handlungskoordination" target="Logik">
<data key="d0">0.13953488372093</data>
<data key="d1">#0000cc</data>
</edge>
<edge id="e8" source="Instrument" target="Steuerung">
<data key="d0">0.13953488372093</data>
<data key="d1">#0000cc</data>
</edge>
<edge id="e9" source="Evaluierenden" target="Schulen">
<data key="d0">0.232558139534884</data>
<data key="d1">#2c00cc</data>
</edge>
<edge id="e10" source="Evaluierenden" target="Wahrnehmung">
<data key="d0">0.279069767441861</data>
<data key="d1">#4200cc</data>
</edge>
<edge id="e11" source="Zielvereinbarungen" target="Abschluss">
<data key="d0">0.13953488372093</data>
<data key="d1">#0000cc</data>
</edge>
<edge id="e12" source="Weiterentwicklung" target="Potenzial">
<data key="d0">0.13953488372093</data>
<data key="d1">#0000cc</data>
</edge>
<edge id="e13" source="Entwicklungsziele" target="Schulen">
<data key="d0">0.13953488372093</data>
<data key="d1">#0000cc</data>
</edge>
<edge id="e14" source="Autorinnen" target="Studie">
<data key="d0">0.13953488372093</data>
<data key="d1">#0000cc</data>
</edge>
<edge id="e15" source="Einstellung" target="Schulen">
<data key="d0">0.13953488372093</data>
<data key="d1">#0000cc</data>
</edge>
<edge id="e16" source="Abläufe" target="Strukturen">
<data key="d0">0.13953488372093</data>
<data key="d1">#0000cc</data>
</edge>
<edge id="e17" source="Artikel" target="Schulwesen">
<data key="d0">0.13953488372093</data>
<data key="d1">#0000cc</data>
</edge>
<edge id="e18" source="Impulse" target="Verbesserung">
<data key="d0">0.13953488372093</data>
<data key="d1">#0000cc</data>
</edge>
<edge id="e19" source="Potenzial" target="Rückmeldung">
<data key="d0">0.13953488372093</data>
<data key="d1">#0000cc</data>
</edge>
<edge id="e20" source="Evaluation" target="Einschätzung">
<data key="d0">0.241860465116279</data>
<data key="d1">#3000cc</data>
</edge>
<edge id="e21" source="Evaluation" target="Schulreferentinnen">
<data key="d0">0.223255813953488</data>
<data key="d1">#2700cc</data>
</edge>
<edge id="e22" source="Evaluation" target="Ergebnisse">
<data key="d0">0.237209302325581</data>
<data key="d1">#2e00cc</data>
</edge>
<edge id="e23" source="Evaluation" target="Run-studie">
<data key="d0">0.255813953488372</data>
<data key="d1">#3700cc</data>
</edge>
<edge id="e24" source="Evaluation" target="Trends">
<data key="d0">0.13953488372093</data>
<data key="d1">#0000cc</data>
</edge>
<edge id="e25" source="Evaluation" target="Beobachtungen">
<data key="d0">0.246511627906977</data>
<data key="d1">#3200cc</data>
</edge>
<edge id="e26" source="Evaluation" target="Verfahren">
<data key="d0">0.251162790697674</data>
<data key="d1">#3500cc</data>
</edge>
<edge id="e27" source="Evaluation" target="Schulen">
<data key="d0">1</data>
<data key="d1">#cc0000</data>
</edge>
<edge id="e28" source="Evaluation" target="Wahrnehmung">
<data key="d0">0.348837209302326</data>
<data key="d1">#6300cc</data>
</edge>
<edge id="e29" source="Einschätzung" target="Verfahren">
<data key="d0">0.13953488372093</data>
<data key="d1">#0000cc</data>
</edge>
<edge id="e30" source="Schülerinnen" target="Leistungen">
<data key="d0">0.13953488372093</data>
<data key="d1">#0000cc</data>
</edge>
<edge id="e31" source="Schülerinnen" target="Schulen">
<data key="d0">0.13953488372093</data>
<data key="d1">#0000cc</data>
</edge>
<edge id="e32" source="Strukturen" target="Schulen">
<data key="d0">0.13953488372093</data>
<data key="d1">#0000cc</data>
</edge>
<edge id="e33" source="Validität" target="Beobachtungen">
<data key="d0">0.13953488372093</data>
<data key="d1">#0000cc</data>
</edge>
<edge id="e34" source="Schulreferentinnen" target="Schulreferenten">
<data key="d0">0.13953488372093</data>
<data key="d1">#0000cc</data>
</edge>
<edge id="e35" source="Schulreferentinnen" target="Zusammenarbeit">
<data key="d0">0.13953488372093</data>
<data key="d1">#0000cc</data>
</edge>
<edge id="e36" source="Schulreferentinnen" target="Schulen">
<data key="d0">0.269767441860465</data>
<data key="d1">#3d00cc</data>
</edge>
<edge id="e37" source="Ergebnisse" target="Run-studie">
<data key="d0">0.279069767441861</data>
<data key="d1">#4200cc</data>
</edge>
<edge id="e38" source="Ergebnisse" target="Akteure">
<data key="d0">0.172093023255814</data>
<data key="d1">#0f00cc</data>
</edge>
<edge id="e39" source="Einblick" target="Schulen">
<data key="d0">0.232558139534884</data>
<data key="d1">#2c00cc</data>
</edge>
<edge id="e40" source="Fragestellung" target="Studie">
<data key="d0">0.13953488372093</data>
<data key="d1">#0000cc</data>
</edge>
<edge id="e41" source="Fazit" target="Run-studie">
<data key="d0">0.13953488372093</data>
<data key="d1">#0000cc</data>
</edge>
<edge id="e42" source="Eigenverantwortung" target="Schulen">
<data key="d0">0.13953488372093</data>
<data key="d1">#0000cc</data>
</edge>
<edge id="e43" source="Schulaufsicht" target="Schulen">
<data key="d0">0.13953488372093</data>
<data key="d1">#0000cc</data>
</edge>
<edge id="e44" source="Nutzung" target="Wahrnehmung">
<data key="d0">0.13953488372093</data>
<data key="d1">#0000cc</data>
</edge>
<edge id="e45" source="Schulreferenten" target="Wahrnehmung">
<data key="d0">0.13953488372093</data>
<data key="d1">#0000cc</data>
</edge>
<edge id="e46" source="Lehrkräften" target="Schulen">
<data key="d0">0.13953488372093</data>
<data key="d1">#0000cc</data>
</edge>
<edge id="e47" source="Zusammenarbeit" target="Schulen">
<data key="d0">0.390697674418605</data>
<data key="d1">#7700cc</data>
</edge>
<edge id="e48" source="Rückmeldung" target="Schulen">
<data key="d0">0.255813953488372</data>
<data key="d1">#3700cc</data>
</edge>
<edge id="e49" source="Verfahren" target="Schulen">
<data key="d0">0.204651162790698</data>
<data key="d1">#1f00cc</data>
</edge>
<edge id="e50" source="Schulen" target="Wahrnehmung">
<data key="d0">0.506976744186046</data>
<data key="d1">#ae00cc</data>
</edge>
<edge id="e51" source="Schulen" target="Schularten">
<data key="d0">0.13953488372093</data>
<data key="d1">#0000cc</data>
</edge>
<edge id="e52" source="Regionalstellen" target="Schularten">
<data key="d0">0.13953488372093</data>
<data key="d1">#0000cc</data>
</edge>
</graph>
</graphml>
