<?xml version="1.0" encoding="UTF-8"?>
<graphml xmlns="http://graphml.graphdrawing.org/xmlns" xmlns:xsi="http://www.w3.org/2001/XMLSchema-instance"
xsi:schemaLocation="http://graphml.graphdrawing.org/xmlns http://graphml.graphdrawing.org/xmlns/1.0/graphml.xsd">

<key id="d0" for="edge" attr.name="weight" attr.type="double">
<default>0.0</default>
</key>
<key id="d1" for="edge" attr.name="color" attr.type="string">
<default>black</default>
</key>
<key id="d2" for="node" attr.name="color" attr.type="string">
<default>#C0C0C0</default>
</key>
<graph id="G" edgedefault="undirected">
<node id="Menschen">
<data key="d2">#C0C040</data>
</node>
<node id="Ungerechtigkeit">
<data key="d2">#C0C040</data>
</node>
<node id="Ungleichheit">
<data key="d2">#C0C040</data>
</node>
<node id="Rawls">
<data key="d2">#C0C040</data>
</node>
<node id="Vorteile">
<data key="d2">#C0C040</data>
</node>
<node id="Urzustand">
<data key="d2">#C0C040</data>
</node>
<node id="Prinzipien">
<data key="d2">#C0C040</data>
</node>
<node id="Personen">
<data key="d2">#C0C040</data>
</node>
<node id="Bürger">
<data key="d2">#C0C040</data>
</node>
<node id="Walzer">
<data key="d2">#C0C040</data>
</node>
<node id="Bedingungen">
<data key="d2">#C0C040</data>
</node>
<node id="Gleichheit">
<data key="d2">#C0C040</data>
</node>
<node id="Verteilung">
<data key="d2">#C0C040</data>
</node>
<node id="Gerechtigkeit">
<data key="d2">#C0C040</data>
</node>
<node id="Distribution">
<data key="d2">#C0C040</data>
</node>
<node id="Fähigkeiten">
<data key="d2">#C0C040</data>
</node>
<node id="Lebenszeit">
<data key="d2">#C0C040</data>
</node>
<node id="Bildungsminimum">
<data key="d2">#C0C040</data>
</node>
<node id="Gesellschaft">
<data key="d2">#C0C040</data>
</node>
<node id="Pädagogik">
<data key="d2">#C0C040</data>
</node>
<node id="Kohlberg">
<data key="d2">#C0C040</data>
</node>
<node id="Religion">
<data key="d2">#C0C040</data>
</node>
<node id="Theologie">
<data key="d2">#C0C040</data>
</node>
<node id="Platon">
<data key="d2">#C0C040</data>
</node>
<node id="Chancengleichheit">
<data key="d2">#C0C040</data>
</node>
<edge id="e0" source="Menschen" target="Ungerechtigkeit">
<data key="d0">0.581661891117478</data>
<data key="d1">#9d00cc</data>
</edge>
<edge id="e1" source="Menschen" target="Ungleichheit">
<data key="d0">0.329512893982808</data>
<data key="d1">#0600cc</data>
</edge>
<edge id="e2" source="Rawls" target="Vorteile">
<data key="d0">0.378223495702006</data>
<data key="d1">#2300cc</data>
</edge>
<edge id="e3" source="Rawls" target="Urzustand">
<data key="d0">0.60458452722063</data>
<data key="d1">#ab00cc</data>
</edge>
<edge id="e4" source="Rawls" target="Prinzipien">
<data key="d0">0.375358166189112</data>
<data key="d1">#2200cc</data>
</edge>
<edge id="e5" source="Rawls" target="Personen">
<data key="d0">0.570200573065903</data>
<data key="d1">#9600cc</data>
</edge>
<edge id="e6" source="Rawls" target="Bürger">
<data key="d0">0.538681948424069</data>
<data key="d1">#8400cc</data>
</edge>
<edge id="e7" source="Rawls" target="Walzer">
<data key="d0">0.329512893982808</data>
<data key="d1">#0600cc</data>
</edge>
<edge id="e8" source="Rawls" target="Bedingungen">
<data key="d0">0.641833810888252</data>
<data key="d1">#c100cc</data>
</edge>
<edge id="e9" source="Rawls" target="Gleichheit">
<data key="d0">0.750716332378224</data>
<data key="d1">#cc0095</data>
</edge>
<edge id="e10" source="Rawls" target="Ungleichheit">
<data key="d0">0.435530085959885</data>
<data key="d1">#4600cc</data>
</edge>
<edge id="e11" source="Rawls" target="Verteilung">
<data key="d0">0.449856733524355</data>
<data key="d1">#4e00cc</data>
</edge>
<edge id="e12" source="Rawls" target="Gerechtigkeit">
<data key="d0">1</data>
<data key="d1">#cc0000</data>
</edge>
<edge id="e13" source="Vorteile" target="Distribution">
<data key="d0">0.320916905444126</data>
<data key="d1">#0100cc</data>
</edge>
<edge id="e14" source="Vorteile" target="Gerechtigkeit">
<data key="d0">0.524355300859599</data>
<data key="d1">#7b00cc</data>
</edge>
<edge id="e15" source="Urzustand" target="Bürger">
<data key="d0">0.326647564469914</data>
<data key="d1">#0500cc</data>
</edge>
<edge id="e16" source="Urzustand" target="Gleichheit">
<data key="d0">0.595988538681948</data>
<data key="d1">#a600cc</data>
</edge>
<edge id="e17" source="Fähigkeiten" target="Ungerechtigkeit">
<data key="d0">0.318051575931232</data>
<data key="d1">#0000cc</data>
</edge>
<edge id="e18" source="Fähigkeiten" target="Distribution">
<data key="d0">0.329512893982808</data>
<data key="d1">#0600cc</data>
</edge>
<edge id="e19" source="Lebenszeit" target="Bildungsminimum">
<data key="d0">0.653295128939828</data>
<data key="d1">#c800cc</data>
</edge>
<edge id="e20" source="Ungerechtigkeit" target="Gesellschaft">
<data key="d0">0.32378223495702</data>
<data key="d1">#0300cc</data>
</edge>
<edge id="e21" source="Ungerechtigkeit" target="Ungleichheit">
<data key="d0">0.335243553008596</data>
<data key="d1">#0a00cc</data>
</edge>
<edge id="e22" source="Ungerechtigkeit" target="Pädagogik">
<data key="d0">0.332378223495702</data>
<data key="d1">#0800cc</data>
</edge>
<edge id="e23" source="Prinzipien" target="Kohlberg">
<data key="d0">0.335243553008596</data>
<data key="d1">#0a00cc</data>
</edge>
<edge id="e24" source="Prinzipien" target="Gleichheit">
<data key="d0">0.326647564469914</data>
<data key="d1">#0500cc</data>
</edge>
<edge id="e25" source="Prinzipien" target="Gerechtigkeit">
<data key="d0">0.329512893982808</data>
<data key="d1">#0600cc</data>
</edge>
<edge id="e26" source="Religion" target="Theologie">
<data key="d0">0.32378223495702</data>
<data key="d1">#0300cc</data>
</edge>
<edge id="e27" source="Kohlberg" target="Gerechtigkeit">
<data key="d0">0.335243553008596</data>
<data key="d1">#0a00cc</data>
</edge>
<edge id="e28" source="Platon" target="Gesellschaft">
<data key="d0">0.329512893982808</data>
<data key="d1">#0600cc</data>
</edge>
<edge id="e29" source="Chancengleichheit" target="Ungleichheit">
<data key="d0">0.650429799426934</data>
<data key="d1">#c600cc</data>
</edge>
<edge id="e30" source="Gesellschaft" target="Personen">
<data key="d0">0.318051575931232</data>
<data key="d1">#0000cc</data>
</edge>
<edge id="e31" source="Personen" target="Gleichheit">
<data key="d0">0.481375358166189</data>
<data key="d1">#6100cc</data>
</edge>
<edge id="e32" source="Personen" target="Gerechtigkeit">
<data key="d0">0.464183381088825</data>
<data key="d1">#5700cc</data>
</edge>
<edge id="e33" source="Bürger" target="Bedingungen">
<data key="d0">0.332378223495702</data>
<data key="d1">#0800cc</data>
</edge>
<edge id="e34" source="Bürger" target="Gleichheit">
<data key="d0">0.335243553008596</data>
<data key="d1">#0a00cc</data>
</edge>
<edge id="e35" source="Bedingungen" target="Ungleichheit">
<data key="d0">0.664756446991404</data>
<data key="d1">#cc00c8</data>
</edge>
<edge id="e36" source="Gleichheit" target="Ungleichheit">
<data key="d0">0.653295128939828</data>
<data key="d1">#c800cc</data>
</edge>
<edge id="e37" source="Gleichheit" target="Gerechtigkeit">
<data key="d0">0.616045845272206</data>
<data key="d1">#b200cc</data>
</edge>
<edge id="e38" source="Ungleichheit" target="Gerechtigkeit">
<data key="d0">0.638968481375358</data>
<data key="d1">#c000cc</data>
</edge>
<edge id="e39" source="Verteilung" target="Gerechtigkeit">
<data key="d0">0.320916905444126</data>
<data key="d1">#0100cc</data>
</edge>
</graph>
</graphml>
