<?xml version="1.0" encoding="UTF-8"?>
<graphml xmlns="http://graphml.graphdrawing.org/xmlns" xmlns:xsi="http://www.w3.org/2001/XMLSchema-instance"
xsi:schemaLocation="http://graphml.graphdrawing.org/xmlns http://graphml.graphdrawing.org/xmlns/1.0/graphml.xsd">

<key id="d0" for="edge" attr.name="weight" attr.type="double">
<default>0.0</default>
</key>
<key id="d1" for="edge" attr.name="color" attr.type="string">
<default>black</default>
</key>
<key id="d2" for="node" attr.name="color" attr.type="string">
<default>#C0C0C0</default>
</key>
<graph id="G" edgedefault="undirected">
<node id="Erziehung">
<data key="d2">#C0C040</data>
</node>
<node id="Bildung">
<data key="d2">#C0C040</data>
</node>
<node id="Mündigkeit">
<data key="d2">#C0C040</data>
</node>
<node id="Konstruktionen">
<data key="d2">#C0C040</data>
</node>
<node id="Kompetenzen">
<data key="d2">#C0C040</data>
</node>
<node id="Konstrukte">
<data key="d2">#C0C040</data>
</node>
<node id="Selbstkompetenz">
<data key="d2">#C0C040</data>
</node>
<node id="Sozialkompetenz">
<data key="d2">#C0C040</data>
</node>
<node id="Handeln">
<data key="d2">#C0C040</data>
</node>
<node id="Person">
<data key="d2">#C0C040</data>
</node>
<node id="Methodenkompetenz">
<data key="d2">#C0C040</data>
</node>
<node id="Sichherausbildens">
<data key="d2">#C0C040</data>
</node>
<node id="Wertbewusstseins">
<data key="d2">#C0C040</data>
</node>
<node id="Fachkompetenz">
<data key="d2">#C0C040</data>
</node>
<node id="Handlungskompetenz">
<data key="d2">#C0C040</data>
</node>
<node id="Sinne">
<data key="d2">#C0C040</data>
</node>
<node id="Aufgabenmengen">
<data key="d2">#C0C040</data>
</node>
<node id="Bewältigung">
<data key="d2">#C0C040</data>
</node>
<node id="Klieme">
<data key="d2">#C0C040</data>
</node>
<node id="Dispositionen">
<data key="d2">#C0C040</data>
</node>
<node id="Gefahr">
<data key="d2">#C0C040</data>
</node>
<node id="Kompetenzgrad">
<data key="d2">#C0C040</data>
</node>
<node id="Leutner">
<data key="d2">#C0C040</data>
</node>
<node id="Leistungen">
<data key="d2">#C0C040</data>
</node>
<node id="Aufgaben">
<data key="d2">#C0C040</data>
</node>
<node id="Kompetenzniveau">
<data key="d2">#C0C040</data>
</node>
<node id="Kompetenzmodell">
<data key="d2">#C0C040</data>
</node>
<node id="Weinert">
<data key="d2">#C0C040</data>
</node>
<node id="Anforderungen">
<data key="d2">#C0C040</data>
</node>
<node id="Begriff">
<data key="d2">#C0C040</data>
</node>
<node id="Prozesse">
<data key="d2">#C0C040</data>
</node>
<node id="Pädagogik">
<data key="d2">#C0C040</data>
</node>
<node id="Dolch">
<data key="d2">#C0C040</data>
</node>
<node id="Vertreter">
<data key="d2">#C0C040</data>
</node>
<node id="Schott">
<data key="d2">#C0C040</data>
</node>
<node id="Ghanbari">
<data key="d2">#C0C040</data>
</node>
<node id="Unterschied">
<data key="d2">#C0C040</data>
</node>
<node id="Personalisation">
<data key="d2">#C0C040</data>
</node>
<edge id="e0" source="Erziehung" target="Bildung">
<data key="d0">0.368653421633554</data>
<data key="d1">#0900cc</data>
</edge>
<edge id="e1" source="Erziehung" target="Mündigkeit">
<data key="d0">0.392935982339956</data>
<data key="d1">#1800cc</data>
</edge>
<edge id="e2" source="Konstruktionen" target="Kompetenzen">
<data key="d0">0.388520971302428</data>
<data key="d1">#1600cc</data>
</edge>
<edge id="e3" source="Konstruktionen" target="Konstrukte">
<data key="d0">0.357615894039735</data>
<data key="d1">#0200cc</data>
</edge>
<edge id="e4" source="Bildung" target="Selbstkompetenz">
<data key="d0">0.390728476821192</data>
<data key="d1">#1700cc</data>
</edge>
<edge id="e5" source="Bildung" target="Sozialkompetenz">
<data key="d0">0.364238410596026</data>
<data key="d1">#0600cc</data>
</edge>
<edge id="e6" source="Bildung" target="Handeln">
<data key="d0">0.503311258278146</data>
<data key="d1">#5e00cc</data>
</edge>
<edge id="e7" source="Bildung" target="Person">
<data key="d0">0.41280353200883</data>
<data key="d1">#2500cc</data>
</edge>
<edge id="e8" source="Bildung" target="Methodenkompetenz">
<data key="d0">0.373068432671082</data>
<data key="d1">#0c00cc</data>
</edge>
<edge id="e9" source="Bildung" target="Sichherausbildens">
<data key="d0">0.39514348785872</data>
<data key="d1">#1a00cc</data>
</edge>
<edge id="e10" source="Bildung" target="Wertbewusstseins">
<data key="d0">0.377483443708609</data>
<data key="d1">#0f00cc</data>
</edge>
<edge id="e11" source="Bildung" target="Fachkompetenz">
<data key="d0">0.381898454746137</data>
<data key="d1">#1100cc</data>
</edge>
<edge id="e12" source="Bildung" target="Handlungskompetenz">
<data key="d0">0.415011037527594</data>
<data key="d1">#2700cc</data>
</edge>
<edge id="e13" source="Kompetenzen" target="Konstrukte">
<data key="d0">0.56953642384106</data>
<data key="d1">#8800cc</data>
</edge>
<edge id="e14" source="Kompetenzen" target="Sinne">
<data key="d0">0.417218543046358</data>
<data key="d1">#2800cc</data>
</edge>
<edge id="e15" source="Kompetenzen" target="Aufgabenmengen">
<data key="d0">0.401766004415011</data>
<data key="d1">#1e00cc</data>
</edge>
<edge id="e16" source="Kompetenzen" target="Bewältigung">
<data key="d0">0.399558498896247</data>
<data key="d1">#1d00cc</data>
</edge>
<edge id="e17" source="Kompetenzen" target="Klieme">
<data key="d0">0.536423841059603</data>
<data key="d1">#7300cc</data>
</edge>
<edge id="e18" source="Kompetenzen" target="Dispositionen">
<data key="d0">0.596026490066225</data>
<data key="d1">#9900cc</data>
</edge>
<edge id="e19" source="Kompetenzen" target="Gefahr">
<data key="d0">0.401766004415011</data>
<data key="d1">#1e00cc</data>
</edge>
<edge id="e20" source="Kompetenzen" target="Person">
<data key="d0">0.419426048565121</data>
<data key="d1">#2900cc</data>
</edge>
<edge id="e21" source="Kompetenzen" target="Kompetenzgrad">
<data key="d0">0.381898454746137</data>
<data key="d1">#1100cc</data>
</edge>
<edge id="e22" source="Kompetenzen" target="Leutner">
<data key="d0">0.390728476821192</data>
<data key="d1">#1700cc</data>
</edge>
<edge id="e23" source="Kompetenzen" target="Leistungen">
<data key="d0">0.355408388520971</data>
<data key="d1">#0100cc</data>
</edge>
<edge id="e24" source="Kompetenzen" target="Aufgaben">
<data key="d0">1</data>
<data key="d1">#cc0000</data>
</edge>
<edge id="e25" source="Kompetenzen" target="Kompetenzniveau">
<data key="d0">0.377483443708609</data>
<data key="d1">#0f00cc</data>
</edge>
<edge id="e26" source="Kompetenzen" target="Kompetenzmodell">
<data key="d0">0.373068432671082</data>
<data key="d1">#0c00cc</data>
</edge>
<edge id="e27" source="Kompetenzen" target="Weinert">
<data key="d0">0.368653421633554</data>
<data key="d1">#0900cc</data>
</edge>
<edge id="e28" source="Konstrukte" target="Dispositionen">
<data key="d0">0.381898454746137</data>
<data key="d1">#1100cc</data>
</edge>
<edge id="e29" source="Anforderungen" target="Person">
<data key="d0">0.384105960264901</data>
<data key="d1">#1300cc</data>
</edge>
<edge id="e30" source="Aufgabenmengen" target="Aufgaben">
<data key="d0">0.377483443708609</data>
<data key="d1">#0f00cc</data>
</edge>
<edge id="e31" source="Begriff" target="Prozesse">
<data key="d0">0.390728476821192</data>
<data key="d1">#1700cc</data>
</edge>
<edge id="e32" source="Begriff" target="Person">
<data key="d0">0.381898454746137</data>
<data key="d1">#1100cc</data>
</edge>
<edge id="e33" source="Selbstkompetenz" target="Sozialkompetenz">
<data key="d0">0.410596026490066</data>
<data key="d1">#2400cc</data>
</edge>
<edge id="e34" source="Selbstkompetenz" target="Methodenkompetenz">
<data key="d0">0.419426048565121</data>
<data key="d1">#2900cc</data>
</edge>
<edge id="e35" source="Selbstkompetenz" target="Fachkompetenz">
<data key="d0">0.428256070640177</data>
<data key="d1">#2f00cc</data>
</edge>
<edge id="e36" source="Selbstkompetenz" target="Handlungskompetenz">
<data key="d0">0.390728476821192</data>
<data key="d1">#1700cc</data>
</edge>
<edge id="e37" source="Pädagogik" target="Dolch">
<data key="d0">0.364238410596026</data>
<data key="d1">#0600cc</data>
</edge>
<edge id="e38" source="Pädagogik" target="Vertreter">
<data key="d0">0.423841059602649</data>
<data key="d1">#2c00cc</data>
</edge>
<edge id="e39" source="Sozialkompetenz" target="Methodenkompetenz">
<data key="d0">0.428256070640177</data>
<data key="d1">#2f00cc</data>
</edge>
<edge id="e40" source="Sozialkompetenz" target="Fachkompetenz">
<data key="d0">0.419426048565121</data>
<data key="d1">#2900cc</data>
</edge>
<edge id="e41" source="Sozialkompetenz" target="Handlungskompetenz">
<data key="d0">0.364238410596026</data>
<data key="d1">#0600cc</data>
</edge>
<edge id="e42" source="Bewältigung" target="Aufgaben">
<data key="d0">0.428256070640177</data>
<data key="d1">#2f00cc</data>
</edge>
<edge id="e43" source="Dolch" target="Vertreter">
<data key="d0">0.377483443708609</data>
<data key="d1">#0f00cc</data>
</edge>
<edge id="e44" source="Klieme" target="Schott">
<data key="d0">0.415011037527594</data>
<data key="d1">#2700cc</data>
</edge>
<edge id="e45" source="Klieme" target="Leutner">
<data key="d0">0.428256070640177</data>
<data key="d1">#2f00cc</data>
</edge>
<edge id="e46" source="Klieme" target="Ghanbari">
<data key="d0">0.406181015452539</data>
<data key="d1">#2100cc</data>
</edge>
<edge id="e47" source="Klieme" target="Unterschied">
<data key="d0">0.379690949227373</data>
<data key="d1">#1000cc</data>
</edge>
<edge id="e48" source="Handeln" target="Person">
<data key="d0">0.39514348785872</data>
<data key="d1">#1a00cc</data>
</edge>
<edge id="e49" source="Handeln" target="Sichherausbildens">
<data key="d0">0.373068432671082</data>
<data key="d1">#0c00cc</data>
</edge>
<edge id="e50" source="Handeln" target="Wertbewusstseins">
<data key="d0">0.390728476821192</data>
<data key="d1">#1700cc</data>
</edge>
<edge id="e51" source="Personalisation" target="Person">
<data key="d0">0.36644591611479</data>
<data key="d1">#0800cc</data>
</edge>
<edge id="e52" source="Prozesse" target="Person">
<data key="d0">0.419426048565121</data>
<data key="d1">#2900cc</data>
</edge>
<edge id="e53" source="Person" target="Sichherausbildens">
<data key="d0">0.419426048565121</data>
<data key="d1">#2900cc</data>
</edge>
<edge id="e54" source="Person" target="Wertbewusstseins">
<data key="d0">0.401766004415011</data>
<data key="d1">#1e00cc</data>
</edge>
<edge id="e55" source="Kompetenzgrad" target="Kompetenzniveau">
<data key="d0">0.428256070640177</data>
<data key="d1">#2f00cc</data>
</edge>
<edge id="e56" source="Methodenkompetenz" target="Fachkompetenz">
<data key="d0">0.428256070640177</data>
<data key="d1">#2f00cc</data>
</edge>
<edge id="e57" source="Methodenkompetenz" target="Handlungskompetenz">
<data key="d0">0.373068432671082</data>
<data key="d1">#0c00cc</data>
</edge>
<edge id="e58" source="Sichherausbildens" target="Wertbewusstseins">
<data key="d0">0.419426048565121</data>
<data key="d1">#2900cc</data>
</edge>
<edge id="e59" source="Schott" target="Ghanbari">
<data key="d0">0.428256070640177</data>
<data key="d1">#2f00cc</data>
</edge>
<edge id="e60" source="Fachkompetenz" target="Handlungskompetenz">
<data key="d0">0.381898454746137</data>
<data key="d1">#1100cc</data>
</edge>
<edge id="e61" source="Leutner" target="Aufgaben">
<data key="d0">0.353200883002208</data>
<data key="d1">#0000cc</data>
</edge>
</graph>
</graphml>
