<?xml version="1.0" encoding="UTF-8"?>
<graphml xmlns="http://graphml.graphdrawing.org/xmlns" xmlns:xsi="http://www.w3.org/2001/XMLSchema-instance"
xsi:schemaLocation="http://graphml.graphdrawing.org/xmlns http://graphml.graphdrawing.org/xmlns/1.0/graphml.xsd">

<key id="d0" for="edge" attr.name="weight" attr.type="double">
<default>0.0</default>
</key>
<key id="d1" for="edge" attr.name="color" attr.type="string">
<default>black</default>
</key>
<key id="d2" for="node" attr.name="color" attr.type="string">
<default>#C0C0C0</default>
</key>
<graph id="G" edgedefault="undirected">
<node id="Handelns">
<data key="d2">#C0C040</data>
</node>
<node id="Fähigkeit">
<data key="d2">#C0C040</data>
</node>
<node id="Lebensabschnitt">
<data key="d2">#C0C040</data>
</node>
<node id="Jahre">
<data key="d2">#C0C040</data>
</node>
<node id="Rahmen">
<data key="d2">#C0C040</data>
</node>
<node id="Systeme">
<data key="d2">#C0C040</data>
</node>
<node id="Gesellschaft">
<data key="d2">#C0C040</data>
</node>
<node id="Schule">
<data key="d2">#C0C040</data>
</node>
<node id="Rolle">
<data key="d2">#C0C040</data>
</node>
<node id="Erwerbstätigkeit">
<data key="d2">#C0C040</data>
</node>
<node id="Beziehungen">
<data key="d2">#C0C040</data>
</node>
<node id="Familie">
<data key="d2">#C0C040</data>
</node>
<node id="Abbau">
<data key="d2">#C0C040</data>
</node>
<node id="Erwerbsleben">
<data key="d2">#C0C040</data>
</node>
<node id="Sozialisation">
<data key="d2">#C0C040</data>
</node>
<node id="Integration">
<data key="d2">#C0C040</data>
</node>
<node id="Austritt">
<data key="d2">#C0C040</data>
</node>
<node id="Zeit">
<data key="d2">#C0C040</data>
</node>
<node id="Beschäftigungssystem">
<data key="d2">#C0C040</data>
</node>
<node id="Arbeitswelt">
<data key="d2">#C0C040</data>
</node>
<node id="Vereine">
<data key="d2">#C0C040</data>
</node>
<node id="Anpassung">
<data key="d2">#C0C040</data>
</node>
<node id="Ausbildung">
<data key="d2">#C0C040</data>
</node>
<node id="Weiterbildungseinrichtungen">
<data key="d2">#C0C040</data>
</node>
<node id="Lange">
<data key="d2">#C0C040</data>
</node>
<node id="Sozialisationsagentur">
<data key="d2">#C0C040</data>
</node>
<node id="Organisationen">
<data key="d2">#C0C040</data>
</node>
<node id="Entwicklung">
<data key="d2">#C0C040</data>
</node>
<node id="Phase">
<data key="d2">#C0C040</data>
</node>
<node id="Leben">
<data key="d2">#C0C040</data>
</node>
<node id="Beruf">
<data key="d2">#C0C040</data>
</node>
<node id="Erwachsenen">
<data key="d2">#C0C040</data>
</node>
<node id="Verlauf">
<data key="d2">#C0C040</data>
</node>
<node id="Sozialisationsinstanzen">
<data key="d2">#C0C040</data>
</node>
<node id="Veränderungen">
<data key="d2">#C0C040</data>
</node>
<node id="Entwicklungsprozesse">
<data key="d2">#C0C040</data>
</node>
<node id="Vergesellschaftung">
<data key="d2">#C0C040</data>
</node>
<node id="Anforderungen">
<data key="d2">#C0C040</data>
</node>
<node id="Kooperation">
<data key="d2">#C0C040</data>
</node>
<node id="Hochschule">
<data key="d2">#C0C040</data>
</node>
<edge id="e0" source="Handelns" target="Fähigkeit">
<data key="d0">0.25</data>
<data key="d1">#0b00cc</data>
</edge>
<edge id="e1" source="Handelns" target="Lebensabschnitt">
<data key="d0">0.241071428571429</data>
<data key="d1">#0600cc</data>
</edge>
<edge id="e2" source="Jahre" target="Rahmen">
<data key="d0">0.232142857142857</data>
<data key="d1">#0200cc</data>
</edge>
<edge id="e3" source="Jahre" target="Systeme">
<data key="d0">0.25</data>
<data key="d1">#0b00cc</data>
</edge>
<edge id="e4" source="Jahre" target="Gesellschaft">
<data key="d0">0.392857142857143</data>
<data key="d1">#5700cc</data>
</edge>
<edge id="e5" source="Jahre" target="Schule">
<data key="d0">0.245535714285714</data>
<data key="d1">#0900cc</data>
</edge>
<edge id="e6" source="Rahmen" target="Systeme">
<data key="d0">0.245535714285714</data>
<data key="d1">#0900cc</data>
</edge>
<edge id="e7" source="Rahmen" target="Rolle">
<data key="d0">0.227678571428571</data>
<data key="d1">#0000cc</data>
</edge>
<edge id="e8" source="Rahmen" target="Gesellschaft">
<data key="d0">0.450892857142857</data>
<data key="d1">#7500cc</data>
</edge>
<edge id="e9" source="Rahmen" target="Erwerbstätigkeit">
<data key="d0">0.254464285714286</data>
<data key="d1">#0e00cc</data>
</edge>
<edge id="e10" source="Beziehungen" target="Familie">
<data key="d0">0.254464285714286</data>
<data key="d1">#0e00cc</data>
</edge>
<edge id="e11" source="Abbau" target="Erwerbsleben">
<data key="d0">0.227678571428571</data>
<data key="d1">#0000cc</data>
</edge>
<edge id="e12" source="Abbau" target="Rolle">
<data key="d0">0.236607142857143</data>
<data key="d1">#0400cc</data>
</edge>
<edge id="e13" source="Abbau" target="Sozialisation">
<data key="d0">0.392857142857143</data>
<data key="d1">#5700cc</data>
</edge>
<edge id="e14" source="Abbau" target="Integration">
<data key="d0">0.25</data>
<data key="d1">#0b00cc</data>
</edge>
<edge id="e15" source="Erwerbsleben" target="Sozialisation">
<data key="d0">0.424107142857143</data>
<data key="d1">#6700cc</data>
</edge>
<edge id="e16" source="Erwerbsleben" target="Austritt">
<data key="d0">0.491071428571429</data>
<data key="d1">#8b00cc</data>
</edge>
<edge id="e17" source="Erwerbsleben" target="Zeit">
<data key="d0">0.236607142857143</data>
<data key="d1">#0400cc</data>
</edge>
<edge id="e18" source="Erwerbsleben" target="Beschäftigungssystem">
<data key="d0">0.334821428571429</data>
<data key="d1">#3800cc</data>
</edge>
<edge id="e19" source="Arbeitswelt" target="Vereine">
<data key="d0">0.245535714285714</data>
<data key="d1">#0900cc</data>
</edge>
<edge id="e20" source="Arbeitswelt" target="Anpassung">
<data key="d0">0.227678571428571</data>
<data key="d1">#0000cc</data>
</edge>
<edge id="e21" source="Arbeitswelt" target="Ausbildung">
<data key="d0">0.232142857142857</data>
<data key="d1">#0200cc</data>
</edge>
<edge id="e22" source="Arbeitswelt" target="Sozialisation">
<data key="d0">0.254464285714286</data>
<data key="d1">#0e00cc</data>
</edge>
<edge id="e23" source="Arbeitswelt" target="Weiterbildungseinrichtungen">
<data key="d0">0.236607142857143</data>
<data key="d1">#0400cc</data>
</edge>
<edge id="e24" source="Lange" target="Sozialisation">
<data key="d0">0.245535714285714</data>
<data key="d1">#0900cc</data>
</edge>
<edge id="e25" source="Lange" target="Zeit">
<data key="d0">0.517857142857143</data>
<data key="d1">#9900cc</data>
</edge>
<edge id="e26" source="Lange" target="Sozialisationsagentur">
<data key="d0">0.25</data>
<data key="d1">#0b00cc</data>
</edge>
<edge id="e27" source="Systeme" target="Integration">
<data key="d0">0.245535714285714</data>
<data key="d1">#0900cc</data>
</edge>
<edge id="e28" source="Vereine" target="Organisationen">
<data key="d0">0.245535714285714</data>
<data key="d1">#0900cc</data>
</edge>
<edge id="e29" source="Vereine" target="Weiterbildungseinrichtungen">
<data key="d0">0.455357142857143</data>
<data key="d1">#7800cc</data>
</edge>
<edge id="e30" source="Entwicklung" target="Sozialisation">
<data key="d0">0.392857142857143</data>
<data key="d1">#5700cc</data>
</edge>
<edge id="e31" source="Entwicklung" target="Erwerbstätigkeit">
<data key="d0">0.245535714285714</data>
<data key="d1">#0900cc</data>
</edge>
<edge id="e32" source="Entwicklung" target="Phase">
<data key="d0">0.40625</data>
<data key="d1">#5e00cc</data>
</edge>
<edge id="e33" source="Anpassung" target="Sozialisation">
<data key="d0">0.25</data>
<data key="d1">#0b00cc</data>
</edge>
<edge id="e34" source="Anpassung" target="Leben">
<data key="d0">0.25</data>
<data key="d1">#0b00cc</data>
</edge>
<edge id="e35" source="Anpassung" target="Beruf">
<data key="d0">0.236607142857143</data>
<data key="d1">#0400cc</data>
</edge>
<edge id="e36" source="Rolle" target="Erwachsenen">
<data key="d0">0.254464285714286</data>
<data key="d1">#0e00cc</data>
</edge>
<edge id="e37" source="Rolle" target="Verlauf">
<data key="d0">0.236607142857143</data>
<data key="d1">#0400cc</data>
</edge>
<edge id="e38" source="Ausbildung" target="Sozialisation">
<data key="d0">0.241071428571429</data>
<data key="d1">#0600cc</data>
</edge>
<edge id="e39" source="Ausbildung" target="Schule">
<data key="d0">0.241071428571429</data>
<data key="d1">#0600cc</data>
</edge>
<edge id="e40" source="Sozialisation" target="Austritt">
<data key="d0">0.236607142857143</data>
<data key="d1">#0400cc</data>
</edge>
<edge id="e41" source="Sozialisation" target="Familie">
<data key="d0">0.25</data>
<data key="d1">#0b00cc</data>
</edge>
<edge id="e42" source="Sozialisation" target="Sozialisationsinstanzen">
<data key="d0">0.245535714285714</data>
<data key="d1">#0900cc</data>
</edge>
<edge id="e43" source="Sozialisation" target="Veränderungen">
<data key="d0">0.25</data>
<data key="d1">#0b00cc</data>
</edge>
<edge id="e44" source="Sozialisation" target="Leben">
<data key="d0">0.428571428571429</data>
<data key="d1">#6a00cc</data>
</edge>
<edge id="e45" source="Sozialisation" target="Zeit">
<data key="d0">0.477678571428571</data>
<data key="d1">#8400cc</data>
</edge>
<edge id="e46" source="Sozialisation" target="Gesellschaft">
<data key="d0">0.397321428571429</data>
<data key="d1">#5900cc</data>
</edge>
<edge id="e47" source="Sozialisation" target="Entwicklungsprozesse">
<data key="d0">0.236607142857143</data>
<data key="d1">#0400cc</data>
</edge>
<edge id="e48" source="Sozialisation" target="Beschäftigungssystem">
<data key="d0">0.450892857142857</data>
<data key="d1">#7500cc</data>
</edge>
<edge id="e49" source="Sozialisation" target="Fähigkeit">
<data key="d0">0.334821428571429</data>
<data key="d1">#3800cc</data>
</edge>
<edge id="e50" source="Sozialisation" target="Integration">
<data key="d0">0.638392857142857</data>
<data key="d1">#cc00be</data>
</edge>
<edge id="e51" source="Sozialisation" target="Schule">
<data key="d0">0.455357142857143</data>
<data key="d1">#7800cc</data>
</edge>
<edge id="e52" source="Sozialisation" target="Verlauf">
<data key="d0">0.25</data>
<data key="d1">#0b00cc</data>
</edge>
<edge id="e53" source="Sozialisation" target="Phase">
<data key="d0">1</data>
<data key="d1">#cc0000</data>
</edge>
<edge id="e54" source="Familie" target="Gesellschaft">
<data key="d0">0.450892857142857</data>
<data key="d1">#7500cc</data>
</edge>
<edge id="e55" source="Familie" target="Sozialisationsagentur">
<data key="d0">0.508928571428571</data>
<data key="d1">#9400cc</data>
</edge>
<edge id="e56" source="Familie" target="Beruf">
<data key="d0">0.321428571428571</data>
<data key="d1">#3100cc</data>
</edge>
<edge id="e57" source="Familie" target="Schule">
<data key="d0">0.455357142857143</data>
<data key="d1">#7800cc</data>
</edge>
<edge id="e58" source="Familie" target="Organisationen">
<data key="d0">0.236607142857143</data>
<data key="d1">#0400cc</data>
</edge>
<edge id="e59" source="Sozialisationsinstanzen" target="Gesellschaft">
<data key="d0">0.227678571428571</data>
<data key="d1">#0000cc</data>
</edge>
<edge id="e60" source="Sozialisationsinstanzen" target="Vergesellschaftung">
<data key="d0">0.241071428571429</data>
<data key="d1">#0600cc</data>
</edge>
<edge id="e61" source="Veränderungen" target="Phase">
<data key="d0">0.241071428571429</data>
<data key="d1">#0600cc</data>
</edge>
<edge id="e62" source="Anforderungen" target="Vergesellschaftung">
<data key="d0">0.254464285714286</data>
<data key="d1">#0e00cc</data>
</edge>
<edge id="e63" source="Anforderungen" target="Verlauf">
<data key="d0">0.245535714285714</data>
<data key="d1">#0900cc</data>
</edge>
<edge id="e64" source="Kooperation" target="Leben">
<data key="d0">0.25</data>
<data key="d1">#0b00cc</data>
</edge>
<edge id="e65" source="Kooperation" target="Fähigkeit">
<data key="d0">0.410714285714286</data>
<data key="d1">#6000cc</data>
</edge>
<edge id="e66" source="Kooperation" target="Phase">
<data key="d0">0.236607142857143</data>
<data key="d1">#0400cc</data>
</edge>
<edge id="e67" source="Leben" target="Fähigkeit">
<data key="d0">0.245535714285714</data>
<data key="d1">#0900cc</data>
</edge>
<edge id="e68" source="Leben" target="Beruf">
<data key="d0">0.25</data>
<data key="d1">#0b00cc</data>
</edge>
<edge id="e69" source="Zeit" target="Phase">
<data key="d0">0.227678571428571</data>
<data key="d1">#0000cc</data>
</edge>
<edge id="e70" source="Gesellschaft" target="Sozialisationsagentur">
<data key="d0">0.254464285714286</data>
<data key="d1">#0e00cc</data>
</edge>
<edge id="e71" source="Gesellschaft" target="Integration">
<data key="d0">0.241071428571429</data>
<data key="d1">#0600cc</data>
</edge>
<edge id="e72" source="Gesellschaft" target="Erwerbstätigkeit">
<data key="d0">0.245535714285714</data>
<data key="d1">#0900cc</data>
</edge>
<edge id="e73" source="Sozialisationsagentur" target="Hochschule">
<data key="d0">0.236607142857143</data>
<data key="d1">#0400cc</data>
</edge>
<edge id="e74" source="Sozialisationsagentur" target="Beruf">
<data key="d0">0.245535714285714</data>
<data key="d1">#0900cc</data>
</edge>
<edge id="e75" source="Sozialisationsagentur" target="Schule">
<data key="d0">0.245535714285714</data>
<data key="d1">#0900cc</data>
</edge>
<edge id="e76" source="Entwicklungsprozesse" target="Integration">
<data key="d0">0.241071428571429</data>
<data key="d1">#0600cc</data>
</edge>
<edge id="e77" source="Hochschule" target="Beruf">
<data key="d0">0.254464285714286</data>
<data key="d1">#0e00cc</data>
</edge>
<edge id="e78" source="Hochschule" target="Schule">
<data key="d0">0.254464285714286</data>
<data key="d1">#0e00cc</data>
</edge>
<edge id="e79" source="Hochschule" target="Organisationen">
<data key="d0">0.241071428571429</data>
<data key="d1">#0600cc</data>
</edge>
<edge id="e80" source="Hochschule" target="Weiterbildungseinrichtungen">
<data key="d0">0.25</data>
<data key="d1">#0b00cc</data>
</edge>
<edge id="e81" source="Fähigkeit" target="Lebensabschnitt">
<data key="d0">0.254464285714286</data>
<data key="d1">#0e00cc</data>
</edge>
<edge id="e82" source="Beruf" target="Schule">
<data key="d0">0.392857142857143</data>
<data key="d1">#5700cc</data>
</edge>
<edge id="e83" source="Organisationen" target="Weiterbildungseinrichtungen">
<data key="d0">0.254464285714286</data>
<data key="d1">#0e00cc</data>
</edge>
</graph>
</graphml>
