<?xml version="1.0" encoding="UTF-8"?>
<graphml xmlns="http://graphml.graphdrawing.org/xmlns" xmlns:xsi="http://www.w3.org/2001/XMLSchema-instance"
xsi:schemaLocation="http://graphml.graphdrawing.org/xmlns http://graphml.graphdrawing.org/xmlns/1.0/graphml.xsd">

<key id="d0" for="edge" attr.name="weight" attr.type="double">
<default>0.0</default>
</key>
<key id="d1" for="edge" attr.name="color" attr.type="string">
<default>black</default>
</key>
<key id="d2" for="node" attr.name="color" attr.type="string">
<default>#C0C0C0</default>
</key>
<graph id="G" edgedefault="undirected">
<node id="Kompositionsindex">
<data key="d2">#C0C040</data>
</node>
<node id="Schulen">
<data key="d2">#C0C040</data>
</node>
<node id="Migrationshintergrund">
<data key="d2">#C0C040</data>
</node>
<node id="Kompetenzstufe">
<data key="d2">#C0C040</data>
</node>
<node id="Leseleistung">
<data key="d2">#C0C040</data>
</node>
<node id="Bundes">
<data key="d2">#C0C040</data>
</node>
<node id="Schulstatistik">
<data key="d2">#C0C040</data>
</node>
<node id="Ämter">
<data key="d2">#C0C040</data>
</node>
<node id="Länder">
<data key="d2">#C0C040</data>
</node>
<node id="Quelle">
<data key="d2">#C0C040</data>
</node>
<node id="Schülerschaft">
<data key="d2">#C0C040</data>
</node>
<node id="Oberschulen">
<data key="d2">#C0C040</data>
</node>
<node id="Sachsen">
<data key="d2">#C0C040</data>
</node>
<node id="Stadt">
<data key="d2">#C0C040</data>
</node>
<node id="Abschlusskonstellationen">
<data key="d2">#C0C040</data>
</node>
<node id="Darstellung">
<data key="d2">#C0C040</data>
</node>
<node id="Schülerinnen">
<data key="d2">#C0C040</data>
</node>
<node id="Zwickau">
<data key="d2">#C0C040</data>
</node>
<edge id="e0" source="Kompositionsindex" target="Schulen">
<data key="d0">0.563380281690141</data>
<data key="d1">#7a00cc</data>
</edge>
<edge id="e1" source="Migrationshintergrund" target="Kompetenzstufe">
<data key="d0">0.652582159624413</data>
<data key="d1">#b500cc</data>
</edge>
<edge id="e2" source="Migrationshintergrund" target="Leseleistung">
<data key="d0">0.652582159624413</data>
<data key="d1">#b500cc</data>
</edge>
<edge id="e3" source="Kompetenzstufe" target="Leseleistung">
<data key="d0">0.666666666666667</data>
<data key="d1">#be00cc</data>
</edge>
<edge id="e4" source="Bundes" target="Schulstatistik">
<data key="d0">0.619718309859155</data>
<data key="d1">#9f00cc</data>
</edge>
<edge id="e5" source="Bundes" target="Ämter">
<data key="d0">1</data>
<data key="d1">#cc0000</data>
</edge>
<edge id="e6" source="Bundes" target="Länder">
<data key="d0">0.985915492957746</data>
<data key="d1">#cc0009</data>
</edge>
<edge id="e7" source="Bundes" target="Quelle">
<data key="d0">0.63849765258216</data>
<data key="d1">#ab00cc</data>
</edge>
<edge id="e8" source="Schulstatistik" target="Ämter">
<data key="d0">0.60093896713615</data>
<data key="d1">#9300cc</data>
</edge>
<edge id="e9" source="Schulstatistik" target="Länder">
<data key="d0">0.647887323943662</data>
<data key="d1">#b100cc</data>
</edge>
<edge id="e10" source="Schulstatistik" target="Quelle">
<data key="d0">0.572769953051643</data>
<data key="d1">#8000cc</data>
</edge>
<edge id="e11" source="Schülerschaft" target="Oberschulen">
<data key="d0">0.605633802816901</data>
<data key="d1">#9600cc</data>
</edge>
<edge id="e12" source="Sachsen" target="Schulen">
<data key="d0">0.63849765258216</data>
<data key="d1">#ab00cc</data>
</edge>
<edge id="e13" source="Sachsen" target="Stadt">
<data key="d0">0.535211267605634</data>
<data key="d1">#6800cc</data>
</edge>
<edge id="e14" source="Abschlusskonstellationen" target="Schulen">
<data key="d0">0.661971830985915</data>
<data key="d1">#bb00cc</data>
</edge>
<edge id="e15" source="Abschlusskonstellationen" target="Stadt">
<data key="d0">0.375586854460094</data>
<data key="d1">#0000cc</data>
</edge>
<edge id="e16" source="Darstellung" target="Quelle">
<data key="d0">0.502347417840376</data>
<data key="d1">#5200cc</data>
</edge>
<edge id="e17" source="Schulen" target="Stadt">
<data key="d0">0.488262910798122</data>
<data key="d1">#4900cc</data>
</edge>
<edge id="e18" source="Schulen" target="Schülerinnen">
<data key="d0">0.666666666666667</data>
<data key="d1">#be00cc</data>
</edge>
<edge id="e19" source="Ämter" target="Länder">
<data key="d0">0.957746478873239</data>
<data key="d1">#cc001b</data>
</edge>
<edge id="e20" source="Ämter" target="Quelle">
<data key="d0">0.657276995305164</data>
<data key="d1">#b800cc</data>
</edge>
<edge id="e21" source="Länder" target="Quelle">
<data key="d0">0.610328638497653</data>
<data key="d1">#9900cc</data>
</edge>
<edge id="e22" source="Stadt" target="Zwickau">
<data key="d0">0.657276995305164</data>
<data key="d1">#b800cc</data>
</edge>
</graph>
</graphml>
