<?xml version="1.0" encoding="UTF-8"?>
<graphml xmlns="http://graphml.graphdrawing.org/xmlns" xmlns:xsi="http://www.w3.org/2001/XMLSchema-instance"
xsi:schemaLocation="http://graphml.graphdrawing.org/xmlns http://graphml.graphdrawing.org/xmlns/1.0/graphml.xsd">

<key id="d0" for="edge" attr.name="weight" attr.type="double">
<default>0.0</default>
</key>
<key id="d1" for="edge" attr.name="color" attr.type="string">
<default>black</default>
</key>
<key id="d2" for="node" attr.name="color" attr.type="string">
<default>#C0C0C0</default>
</key>
<graph id="G" edgedefault="undirected">
<node id="Konstruktionen">
<data key="d2">#C0C040</data>
</node>
<node id="Kompetenzen">
<data key="d2">#C0C040</data>
</node>
<node id="Definition">
<data key="d2">#C0C040</data>
</node>
<node id="Kompetenzgrad">
<data key="d2">#C0C040</data>
</node>
<node id="Fachkompetenz">
<data key="d2">#C0C040</data>
</node>
<node id="Sozialkompetenz">
<data key="d2">#C0C040</data>
</node>
<node id="Bildung">
<data key="d2">#C0C040</data>
</node>
<node id="Selbstkompetenz">
<data key="d2">#C0C040</data>
</node>
<node id="Handlungskompetenz">
<data key="d2">#C0C040</data>
</node>
<node id="Methodenkompetenz">
<data key="d2">#C0C040</data>
</node>
<node id="Bildungswesens">
<data key="d2">#C0C040</data>
</node>
<node id="Reform">
<data key="d2">#C0C040</data>
</node>
<node id="Diskussion">
<data key="d2">#C0C040</data>
</node>
<node id="Anforderungen">
<data key="d2">#C0C040</data>
</node>
<node id="Person">
<data key="d2">#C0C040</data>
</node>
<node id="Leistungen">
<data key="d2">#C0C040</data>
</node>
<node id="Unterschied">
<data key="d2">#C0C040</data>
</node>
<node id="Erziehung">
<data key="d2">#C0C040</data>
</node>
<node id="Sichherausbilden">
<data key="d2">#C0C040</data>
</node>
<node id="Sinne">
<data key="d2">#C0C040</data>
</node>
<node id="Begriff">
<data key="d2">#C0C040</data>
</node>
<node id="Handeln">
<data key="d2">#C0C040</data>
</node>
<node id="Wertbewusstsein">
<data key="d2">#C0C040</data>
</node>
<node id="Kompetenzmodell">
<data key="d2">#C0C040</data>
</node>
<node id="Prozesse">
<data key="d2">#C0C040</data>
</node>
<node id="Bewältigung">
<data key="d2">#C0C040</data>
</node>
<node id="Aufgaben">
<data key="d2">#C0C040</data>
</node>
<node id="Konstrukte">
<data key="d2">#C0C040</data>
</node>
<node id="Dispositionen">
<data key="d2">#C0C040</data>
</node>
<node id="Fähigkeiten">
<data key="d2">#C0C040</data>
</node>
<node id="Fertigkeiten">
<data key="d2">#C0C040</data>
</node>
<node id="Gefahr">
<data key="d2">#C0C040</data>
</node>
<node id="Wertbewusstseins">
<data key="d2">#C0C040</data>
</node>
<node id="Sozialisation">
<data key="d2">#C0C040</data>
</node>
<node id="Personalisation">
<data key="d2">#C0C040</data>
</node>
<node id="Pädagogik">
<data key="d2">#C0C040</data>
</node>
<node id="Vertreter">
<data key="d2">#C0C040</data>
</node>
<edge id="e0" source="Konstruktionen" target="Kompetenzen">
<data key="d0">0.494475138121547</data>
<data key="d1">#7e00cc</data>
</edge>
<edge id="e1" source="Definition" target="Kompetenzen">
<data key="d0">0.267955801104972</data>
<data key="d1">#0000cc</data>
</edge>
<edge id="e2" source="Kompetenzgrad" target="Kompetenzen">
<data key="d0">0.502762430939226</data>
<data key="d1">#8200cc</data>
</edge>
<edge id="e3" source="Fachkompetenz" target="Sozialkompetenz">
<data key="d0">0.524861878453039</data>
<data key="d1">#8f00cc</data>
</edge>
<edge id="e4" source="Fachkompetenz" target="Bildung">
<data key="d0">0.477900552486188</data>
<data key="d1">#7500cc</data>
</edge>
<edge id="e5" source="Fachkompetenz" target="Selbstkompetenz">
<data key="d0">0.535911602209945</data>
<data key="d1">#9500cc</data>
</edge>
<edge id="e6" source="Fachkompetenz" target="Handlungskompetenz">
<data key="d0">0.477900552486188</data>
<data key="d1">#7500cc</data>
</edge>
<edge id="e7" source="Fachkompetenz" target="Methodenkompetenz">
<data key="d0">0.535911602209945</data>
<data key="d1">#9500cc</data>
</edge>
<edge id="e8" source="Bildungswesens" target="Reform">
<data key="d0">0.535911602209945</data>
<data key="d1">#9500cc</data>
</edge>
<edge id="e9" source="Bildungswesens" target="Diskussion">
<data key="d0">0.49171270718232</data>
<data key="d1">#7c00cc</data>
</edge>
<edge id="e10" source="Sozialkompetenz" target="Bildung">
<data key="d0">0.455801104972376</data>
<data key="d1">#6800cc</data>
</edge>
<edge id="e11" source="Sozialkompetenz" target="Selbstkompetenz">
<data key="d0">0.513812154696133</data>
<data key="d1">#8900cc</data>
</edge>
<edge id="e12" source="Sozialkompetenz" target="Handlungskompetenz">
<data key="d0">0.455801104972376</data>
<data key="d1">#6800cc</data>
</edge>
<edge id="e13" source="Sozialkompetenz" target="Methodenkompetenz">
<data key="d0">0.535911602209945</data>
<data key="d1">#9500cc</data>
</edge>
<edge id="e14" source="Anforderungen" target="Person">
<data key="d0">0.480662983425414</data>
<data key="d1">#7600cc</data>
</edge>
<edge id="e15" source="Leistungen" target="Kompetenzen">
<data key="d0">0.447513812154696</data>
<data key="d1">#6300cc</data>
</edge>
<edge id="e16" source="Unterschied" target="Erziehung">
<data key="d0">0.267955801104972</data>
<data key="d1">#0000cc</data>
</edge>
<edge id="e17" source="Bildung" target="Sichherausbilden">
<data key="d0">0.494475138121547</data>
<data key="d1">#7e00cc</data>
</edge>
<edge id="e18" source="Bildung" target="Kompetenzen">
<data key="d0">0.453038674033149</data>
<data key="d1">#6700cc</data>
</edge>
<edge id="e19" source="Bildung" target="Sinne">
<data key="d0">0.511049723756906</data>
<data key="d1">#8700cc</data>
</edge>
<edge id="e20" source="Bildung" target="Begriff">
<data key="d0">0.267955801104972</data>
<data key="d1">#0000cc</data>
</edge>
<edge id="e21" source="Bildung" target="Handeln">
<data key="d0">0.414364640883978</data>
<data key="d1">#5100cc</data>
</edge>
<edge id="e22" source="Bildung" target="Selbstkompetenz">
<data key="d0">0.488950276243094</data>
<data key="d1">#7b00cc</data>
</edge>
<edge id="e23" source="Bildung" target="Handlungskompetenz">
<data key="d0">0.519337016574586</data>
<data key="d1">#8b00cc</data>
</edge>
<edge id="e24" source="Bildung" target="Methodenkompetenz">
<data key="d0">0.466850828729282</data>
<data key="d1">#6e00cc</data>
</edge>
<edge id="e25" source="Bildung" target="Person">
<data key="d0">0.516574585635359</data>
<data key="d1">#8a00cc</data>
</edge>
<edge id="e26" source="Bildung" target="Wertbewusstsein">
<data key="d0">0.472375690607735</data>
<data key="d1">#7100cc</data>
</edge>
<edge id="e27" source="Kompetenzmodell" target="Kompetenzen">
<data key="d0">0.466850828729282</data>
<data key="d1">#6e00cc</data>
</edge>
<edge id="e28" source="Sichherausbilden" target="Handeln">
<data key="d0">0.466850828729282</data>
<data key="d1">#6e00cc</data>
</edge>
<edge id="e29" source="Sichherausbilden" target="Prozesse">
<data key="d0">0.267955801104972</data>
<data key="d1">#0000cc</data>
</edge>
<edge id="e30" source="Sichherausbilden" target="Person">
<data key="d0">0.524861878453039</data>
<data key="d1">#8f00cc</data>
</edge>
<edge id="e31" source="Sichherausbilden" target="Wertbewusstsein">
<data key="d0">0.524861878453039</data>
<data key="d1">#8f00cc</data>
</edge>
<edge id="e32" source="Bewältigung" target="Kompetenzen">
<data key="d0">0.5</data>
<data key="d1">#8100cc</data>
</edge>
<edge id="e33" source="Bewältigung" target="Aufgaben">
<data key="d0">0.535911602209945</data>
<data key="d1">#9500cc</data>
</edge>
<edge id="e34" source="Konstrukte" target="Kompetenzen">
<data key="d0">0.712707182320442</data>
<data key="d1">#cc009f</data>
</edge>
<edge id="e35" source="Konstrukte" target="Dispositionen">
<data key="d0">0.477900552486188</data>
<data key="d1">#7500cc</data>
</edge>
<edge id="e36" source="Fähigkeiten" target="Fertigkeiten">
<data key="d0">0.267955801104972</data>
<data key="d1">#0000cc</data>
</edge>
<edge id="e37" source="Kompetenzen" target="Sinne">
<data key="d0">0.734806629834254</data>
<data key="d1">#cc0093</data>
</edge>
<edge id="e38" source="Kompetenzen" target="Dispositionen">
<data key="d0">0.74585635359116</data>
<data key="d1">#cc008d</data>
</edge>
<edge id="e39" source="Kompetenzen" target="Aufgaben">
<data key="d0">1</data>
<data key="d1">#cc0000</data>
</edge>
<edge id="e40" source="Kompetenzen" target="Person">
<data key="d0">0.524861878453039</data>
<data key="d1">#8f00cc</data>
</edge>
<edge id="e41" source="Kompetenzen" target="Gefahr">
<data key="d0">0.50828729281768</data>
<data key="d1">#8500cc</data>
</edge>
<edge id="e42" source="Sinne" target="Selbstkompetenz">
<data key="d0">0.267955801104972</data>
<data key="d1">#0000cc</data>
</edge>
<edge id="e43" source="Begriff" target="Prozesse">
<data key="d0">0.488950276243094</data>
<data key="d1">#7b00cc</data>
</edge>
<edge id="e44" source="Begriff" target="Erziehung">
<data key="d0">0.267955801104972</data>
<data key="d1">#0000cc</data>
</edge>
<edge id="e45" source="Begriff" target="Person">
<data key="d0">0.477900552486188</data>
<data key="d1">#7500cc</data>
</edge>
<edge id="e46" source="Handeln" target="Person">
<data key="d0">0.494475138121547</data>
<data key="d1">#7e00cc</data>
</edge>
<edge id="e47" source="Handeln" target="Wertbewusstseins">
<data key="d0">0.488950276243094</data>
<data key="d1">#7b00cc</data>
</edge>
<edge id="e48" source="Reform" target="Diskussion">
<data key="d0">0.502762430939226</data>
<data key="d1">#8200cc</data>
</edge>
<edge id="e49" source="Prozesse" target="Person">
<data key="d0">0.524861878453039</data>
<data key="d1">#8f00cc</data>
</edge>
<edge id="e50" source="Selbstkompetenz" target="Handlungskompetenz">
<data key="d0">0.488950276243094</data>
<data key="d1">#7b00cc</data>
</edge>
<edge id="e51" source="Selbstkompetenz" target="Methodenkompetenz">
<data key="d0">0.524861878453039</data>
<data key="d1">#8f00cc</data>
</edge>
<edge id="e52" source="Handlungskompetenz" target="Methodenkompetenz">
<data key="d0">0.466850828729282</data>
<data key="d1">#6e00cc</data>
</edge>
<edge id="e53" source="Erziehung" target="Person">
<data key="d0">0.43646408839779</data>
<data key="d1">#5d00cc</data>
</edge>
<edge id="e54" source="Erziehung" target="Sozialisation">
<data key="d0">0.359116022099447</data>
<data key="d1">#3300cc</data>
</edge>
<edge id="e55" source="Erziehung" target="Personalisation">
<data key="d0">0.406077348066298</data>
<data key="d1">#4d00cc</data>
</edge>
<edge id="e56" source="Pädagogik" target="Vertreter">
<data key="d0">0.530386740331492</data>
<data key="d1">#9200cc</data>
</edge>
<edge id="e57" source="Person" target="Sozialisation">
<data key="d0">0.397790055248619</data>
<data key="d1">#4800cc</data>
</edge>
<edge id="e58" source="Person" target="Wertbewusstsein">
<data key="d0">0.502762430939226</data>
<data key="d1">#8200cc</data>
</edge>
<edge id="e59" source="Person" target="Personalisation">
<data key="d0">0.455801104972376</data>
<data key="d1">#6800cc</data>
</edge>
<edge id="e60" source="Sozialisation" target="Personalisation">
<data key="d0">0.488950276243094</data>
<data key="d1">#7b00cc</data>
</edge>
</graph>
</graphml>
