<?xml version="1.0" encoding="UTF-8"?>
<graphml xmlns="http://graphml.graphdrawing.org/xmlns" xmlns:xsi="http://www.w3.org/2001/XMLSchema-instance"
xsi:schemaLocation="http://graphml.graphdrawing.org/xmlns http://graphml.graphdrawing.org/xmlns/1.0/graphml.xsd">

<key id="d0" for="edge" attr.name="weight" attr.type="double">
<default>0.0</default>
</key>
<key id="d1" for="edge" attr.name="color" attr.type="string">
<default>black</default>
</key>
<key id="d2" for="node" attr.name="color" attr.type="string">
<default>#C0C0C0</default>
</key>
<graph id="G" edgedefault="undirected">
<node id="Behinderungen">
<data key="d2">#C0C040</data>
</node>
<node id="Menschen">
<data key="d2">#C0C040</data>
</node>
<node id="Student">
<data key="d2">#C0C040</data>
</node>
<node id="Services">
<data key="d2">#C0C040</data>
</node>
<node id="Strukturen">
<data key="d2">#C0C040</data>
</node>
<node id="Programme">
<data key="d2">#C0C040</data>
</node>
<node id="Brunswick">
<data key="d2">#C0C040</data>
</node>
<node id="Unterstützung">
<data key="d2">#C0C040</data>
</node>
<node id="Education">
<data key="d2">#C0C040</data>
</node>
<node id="Schule">
<data key="d2">#C0C040</data>
</node>
<node id="Kinder">
<data key="d2">#C0C040</data>
</node>
<node id="Special-Needs">
<data key="d2">#C0C040</data>
</node>
<node id="Freedoms">
<data key="d2">#C0C040</data>
</node>
<node id="Rights">
<data key="d2">#C0C040</data>
</node>
<node id="Charter">
<data key="d2">#C0C040</data>
</node>
<node id="Schüler">
<data key="d2">#C0C040</data>
</node>
<node id="Methods">
<data key="d2">#C0C040</data>
</node>
<node id="Teachers">
<data key="d2">#C0C040</data>
</node>
<node id="Resource">
<data key="d2">#C0C040</data>
</node>
<node id="Teilhabe">
<data key="d2">#C0C040</data>
</node>
<node id="Umsetzung">
<data key="d2">#C0C040</data>
</node>
<node id="Integration">
<data key="d2">#C0C040</data>
</node>
<node id="Inklusion">
<data key="d2">#C0C040</data>
</node>
<node id="Department">
<data key="d2">#C0C040</data>
</node>
<node id="Jugendlichen">
<data key="d2">#C0C040</data>
</node>
<edge id="e0" source="Behinderungen" target="Menschen">
<data key="d0">0.316885964912281</data>
<data key="d1">#0100cc</data>
</edge>
<edge id="e1" source="Student" target="Services">
<data key="d0">0.333333333333333</data>
<data key="d1">#0c00cc</data>
</edge>
<edge id="e2" source="Strukturen" target="Programme">
<data key="d0">0.331140350877193</data>
<data key="d1">#0b00cc</data>
</edge>
<edge id="e3" source="Brunswick" target="Unterstützung">
<data key="d0">0.398026315789474</data>
<data key="d1">#3700cc</data>
</edge>
<edge id="e4" source="Brunswick" target="Education">
<data key="d0">0.925438596491228</data>
<data key="d1">#cc0000</data>
</edge>
<edge id="e5" source="Brunswick" target="Schule">
<data key="d0">0.379385964912281</data>
<data key="d1">#2b00cc</data>
</edge>
<edge id="e6" source="Brunswick" target="Kinder">
<data key="d0">0.464912280701754</data>
<data key="d1">#6400cc</data>
</edge>
<edge id="e7" source="Brunswick" target="Special-Needs">
<data key="d0">0.323464912280702</data>
<data key="d1">#0500cc</data>
</edge>
<edge id="e8" source="Freedoms" target="Rights">
<data key="d0">0.496710526315789</data>
<data key="d1">#7900cc</data>
</edge>
<edge id="e9" source="Freedoms" target="Charter">
<data key="d0">0.490131578947368</data>
<data key="d1">#7500cc</data>
</edge>
<edge id="e10" source="Schüler" target="Schule">
<data key="d0">0.331140350877193</data>
<data key="d1">#0b00cc</data>
</edge>
<edge id="e11" source="Methods" target="Teachers">
<data key="d0">0.331140350877193</data>
<data key="d1">#0b00cc</data>
</edge>
<edge id="e12" source="Methods" target="Resource">
<data key="d0">0.333333333333333</data>
<data key="d1">#0c00cc</data>
</edge>
<edge id="e13" source="Unterstützung" target="Schule">
<data key="d0">0.458333333333333</data>
<data key="d1">#5f00cc</data>
</edge>
<edge id="e14" source="Teilhabe" target="Kinder">
<data key="d0">0.325657894736842</data>
<data key="d1">#0700cc</data>
</edge>
<edge id="e15" source="Teilhabe" target="Umsetzung">
<data key="d0">0.31469298245614</data>
<data key="d1">#0000cc</data>
</edge>
<edge id="e16" source="Integration" target="Inklusion">
<data key="d0">0.331140350877193</data>
<data key="d1">#0b00cc</data>
</edge>
<edge id="e17" source="Teachers" target="Resource">
<data key="d0">0.333333333333333</data>
<data key="d1">#0c00cc</data>
</edge>
<edge id="e18" source="Education" target="Department">
<data key="d0">0.331140350877193</data>
<data key="d1">#0b00cc</data>
</edge>
<edge id="e19" source="Education" target="Services">
<data key="d0">0.321271929824561</data>
<data key="d1">#0400cc</data>
</edge>
<edge id="e20" source="Education" target="Special-Needs">
<data key="d0">0.453947368421053</data>
<data key="d1">#5d00cc</data>
</edge>
<edge id="e21" source="Schule" target="Special-Needs">
<data key="d0">0.586622807017544</data>
<data key="d1">#b500cc</data>
</edge>
<edge id="e22" source="Kinder" target="Special-Needs">
<data key="d0">0.81030701754386</data>
<data key="d1">#cc004d</data>
</edge>
<edge id="e23" source="Kinder" target="Jugendlichen">
<data key="d0">0.496710526315789</data>
<data key="d1">#7900cc</data>
</edge>
<edge id="e24" source="Rights" target="Charter">
<data key="d0">0.496710526315789</data>
<data key="d1">#7900cc</data>
</edge>
<edge id="e25" source="Special-Needs" target="Jugendlichen">
<data key="d0">0.487938596491228</data>
<data key="d1">#7300cc</data>
</edge>
</graph>
</graphml>
