<?xml version="1.0" encoding="UTF-8"?>
<graphml xmlns="http://graphml.graphdrawing.org/xmlns" xmlns:xsi="http://www.w3.org/2001/XMLSchema-instance"
xsi:schemaLocation="http://graphml.graphdrawing.org/xmlns http://graphml.graphdrawing.org/xmlns/1.0/graphml.xsd">

<key id="d0" for="edge" attr.name="weight" attr.type="double">
<default>0.0</default>
</key>
<key id="d1" for="edge" attr.name="color" attr.type="string">
<default>black</default>
</key>
<key id="d2" for="node" attr.name="color" attr.type="string">
<default>#C0C0C0</default>
</key>
<graph id="G" edgedefault="undirected">
<node id="Macht">
<data key="d2">#C0C040</data>
</node>
<node id="Wissen">
<data key="d2">#C0C040</data>
</node>
<node id="Wirkung">
<data key="d2">#C0C040</data>
</node>
<node id="Umsetzung">
<data key="d2">#C0C040</data>
</node>
<node id="Gestaltung">
<data key="d2">#C0C040</data>
</node>
<node id="Prozesse">
<data key="d2">#C0C040</data>
</node>
<node id="Handlung">
<data key="d2">#C0C040</data>
</node>
<node id="Akteure">
<data key="d2">#C0C040</data>
</node>
<node id="Einzelschule">
<data key="d2">#C0C040</data>
</node>
<node id="Mikroebene">
<data key="d2">#C0C040</data>
</node>
<node id="Ebene">
<data key="d2">#C0C040</data>
</node>
<node id="Verbetrieblichung">
<data key="d2">#C0C040</data>
</node>
<node id="Schulaufsicht">
<data key="d2">#C0C040</data>
</node>
<node id="Lehrpersonen">
<data key="d2">#C0C040</data>
</node>
<node id="Schüler">
<data key="d2">#C0C040</data>
</node>
<node id="Steuerungsmodelle">
<data key="d2">#C0C040</data>
</node>
<node id="Steuerungsinstrumente">
<data key="d2">#C0C040</data>
</node>
<node id="Steuerung">
<data key="d2">#C0C040</data>
</node>
<node id="Verfügung">
<data key="d2">#C0C040</data>
</node>
<node id="Koordination">
<data key="d2">#C0C040</data>
</node>
<node id="Beeinflussung">
<data key="d2">#C0C040</data>
</node>
<node id="Practice">
<data key="d2">#C0C040</data>
</node>
<node id="Policy">
<data key="d2">#C0C040</data>
</node>
<node id="Forschung">
<data key="d2">#C0C040</data>
</node>
<node id="Bildungspolitik">
<data key="d2">#C0C040</data>
</node>
<node id="Governance-perspektive">
<data key="d2">#C0C040</data>
</node>
<node id="Implikationen">
<data key="d2">#C0C040</data>
</node>
<node id="Leistungsproduktion">
<data key="d2">#C0C040</data>
</node>
<node id="Auswirkungen">
<data key="d2">#C0C040</data>
</node>
<edge id="e0" source="Macht" target="Wissen">
<data key="d0">0.491869918699187</data>
<data key="d1">#0300cc</data>
</edge>
<edge id="e1" source="Wirkung" target="Umsetzung">
<data key="d0">0.983739837398374</data>
<data key="d1">#cc000d</data>
</edge>
<edge id="e2" source="Wirkung" target="Gestaltung">
<data key="d0">0.83739837398374</data>
<data key="d1">#cc0081</data>
</edge>
<edge id="e3" source="Wirkung" target="Wissen">
<data key="d0">0.898373983739837</data>
<data key="d1">#cc0050</data>
</edge>
<edge id="e4" source="Prozesse" target="Wissen">
<data key="d0">0.495934959349594</data>
<data key="d1">#0600cc</data>
</edge>
<edge id="e5" source="Handlung" target="Akteure">
<data key="d0">0.5</data>
<data key="d1">#0900cc</data>
</edge>
<edge id="e6" source="Einzelschule" target="Mikroebene">
<data key="d0">0.882113821138211</data>
<data key="d1">#cc005d</data>
</edge>
<edge id="e7" source="Einzelschule" target="Ebene">
<data key="d0">0.91869918699187</data>
<data key="d1">#cc0040</data>
</edge>
<edge id="e8" source="Einzelschule" target="Verbetrieblichung">
<data key="d0">1</data>
<data key="d1">#cc0000</data>
</edge>
<edge id="e9" source="Schulaufsicht" target="Lehrpersonen">
<data key="d0">0.66260162601626</data>
<data key="d1">#8b00cc</data>
</edge>
<edge id="e10" source="Schulaufsicht" target="Schüler">
<data key="d0">0.75609756097561</data>
<data key="d1">#cc00c2</data>
</edge>
<edge id="e11" source="Steuerungsmodelle" target="Steuerungsinstrumente">
<data key="d0">0.491869918699187</data>
<data key="d1">#0300cc</data>
</edge>
<edge id="e12" source="Steuerung" target="Verfügung">
<data key="d0">0.491869918699187</data>
<data key="d1">#0300cc</data>
</edge>
<edge id="e13" source="Steuerung" target="Akteure">
<data key="d0">0.5</data>
<data key="d1">#0900cc</data>
</edge>
<edge id="e14" source="Verfügung" target="Wissen">
<data key="d0">0.898373983739837</data>
<data key="d1">#cc0050</data>
</edge>
<edge id="e15" source="Verfügung" target="Akteure">
<data key="d0">0.898373983739837</data>
<data key="d1">#cc0050</data>
</edge>
<edge id="e16" source="Koordination" target="Beeinflussung">
<data key="d0">0.491869918699187</data>
<data key="d1">#0300cc</data>
</edge>
<edge id="e17" source="Practice" target="Policy">
<data key="d0">0.495934959349594</data>
<data key="d1">#0600cc</data>
</edge>
<edge id="e18" source="Practice" target="Forschung">
<data key="d0">0.495934959349594</data>
<data key="d1">#0600cc</data>
</edge>
<edge id="e19" source="Lehrpersonen" target="Mikroebene">
<data key="d0">0.48780487804878</data>
<data key="d1">#0000cc</data>
</edge>
<edge id="e20" source="Lehrpersonen" target="Schüler">
<data key="d0">0.922764227642276</data>
<data key="d1">#cc003d</data>
</edge>
<edge id="e21" source="Forschung" target="Bildungspolitik">
<data key="d0">0.48780487804878</data>
<data key="d1">#0000cc</data>
</edge>
<edge id="e22" source="Wissen" target="Governance-perspektive">
<data key="d0">0.926829268292683</data>
<data key="d1">#cc003a</data>
</edge>
<edge id="e23" source="Wissen" target="Implikationen">
<data key="d0">0.991869918699187</data>
<data key="d1">#cc0006</data>
</edge>
<edge id="e24" source="Wissen" target="Akteure">
<data key="d0">0.853658536585366</data>
<data key="d1">#cc0074</data>
</edge>
<edge id="e25" source="Governance-perspektive" target="Leistungsproduktion">
<data key="d0">0.739837398373984</data>
<data key="d1">#c800cc</data>
</edge>
<edge id="e26" source="Governance-perspektive" target="Auswirkungen">
<data key="d0">0.760162601626016</data>
<data key="d1">#cc00be</data>
</edge>
<edge id="e27" source="Leistungsproduktion" target="Auswirkungen">
<data key="d0">0.922764227642276</data>
<data key="d1">#cc003d</data>
</edge>
<edge id="e28" source="Implikationen" target="Akteure">
<data key="d0">0.853658536585366</data>
<data key="d1">#cc0074</data>
</edge>
</graph>
</graphml>
