<?xml version="1.0" encoding="UTF-8"?>
<graphml xmlns="http://graphml.graphdrawing.org/xmlns" xmlns:xsi="http://www.w3.org/2001/XMLSchema-instance"
xsi:schemaLocation="http://graphml.graphdrawing.org/xmlns http://graphml.graphdrawing.org/xmlns/1.0/graphml.xsd">

<key id="d0" for="edge" attr.name="weight" attr.type="double">
<default>0.0</default>
</key>
<key id="d1" for="edge" attr.name="color" attr.type="string">
<default>black</default>
</key>
<key id="d2" for="node" attr.name="color" attr.type="string">
<default>#C0C0C0</default>
</key>
<graph id="G" edgedefault="undirected">
<node id="Schools">
<data key="d2">#C0C040</data>
</node>
<node id="Lehrkräfte">
<data key="d2">#C0C040</data>
</node>
<node id="Hautfarbe">
<data key="d2">#C0C040</data>
</node>
<node id="First-Nations">
<data key="d2">#C0C040</data>
</node>
<node id="Indian">
<data key="d2">#C0C040</data>
</node>
<node id="Education">
<data key="d2">#C0C040</data>
</node>
<node id="Schulen">
<data key="d2">#C0C040</data>
</node>
<node id="Columbia">
<data key="d2">#C0C040</data>
</node>
<node id="Erfahrungen">
<data key="d2">#C0C040</data>
</node>
<node id="Jugendliche">
<data key="d2">#C0C040</data>
</node>
<node id="Projekte">
<data key="d2">#C0C040</data>
</node>
<node id="Kanada">
<data key="d2">#C0C040</data>
</node>
<node id="Berichterstattung">
<data key="d2">#C0C040</data>
</node>
<node id="Universität">
<data key="d2">#C0C040</data>
</node>
<node id="Colleges">
<data key="d2">#C0C040</data>
</node>
<node id="University">
<data key="d2">#C0C040</data>
</node>
<node id="Secondary">
<data key="d2">#C0C040</data>
</node>
<node id="Toronto">
<data key="d2">#C0C040</data>
</node>
<node id="Eltern">
<data key="d2">#C0C040</data>
</node>
<node id="Unterstützung">
<data key="d2">#C0C040</data>
</node>
<edge id="e0" source="Schools" target="Lehrkräfte">
<data key="d0">0.374</data>
<data key="d1">#b300cc</data>
</edge>
<edge id="e1" source="Schools" target="Hautfarbe">
<data key="d0">0.196</data>
<data key="d1">#0000cc</data>
</edge>
<edge id="e2" source="Schools" target="First-Nations">
<data key="d0">0.6</data>
<data key="d1">#cc0000</data>
</edge>
<edge id="e3" source="Schools" target="Indian">
<data key="d0">0.348</data>
<data key="d1">#9900cc</data>
</edge>
<edge id="e4" source="Schools" target="Education">
<data key="d0">0.354</data>
<data key="d1">#9f00cc</data>
</edge>
<edge id="e5" source="Lehrkräfte" target="Schulen">
<data key="d0">0.384</data>
<data key="d1">#bd00cc</data>
</edge>
<edge id="e6" source="Lehrkräfte" target="First-Nations">
<data key="d0">0.196</data>
<data key="d1">#0000cc</data>
</edge>
<edge id="e7" source="Columbia" target="Indian">
<data key="d0">0.336</data>
<data key="d1">#8d00cc</data>
</edge>
<edge id="e8" source="Columbia" target="First-Nations">
<data key="d0">0.332</data>
<data key="d1">#8900cc</data>
</edge>
<edge id="e9" source="Columbia" target="Education">
<data key="d0">0.324</data>
<data key="d1">#8100cc</data>
</edge>
<edge id="e10" source="First-Nations" target="Indian">
<data key="d0">0.352</data>
<data key="d1">#9d00cc</data>
</edge>
<edge id="e11" source="First-Nations" target="Erfahrungen">
<data key="d0">0.198</data>
<data key="d1">#0200cc</data>
</edge>
<edge id="e12" source="First-Nations" target="Education">
<data key="d0">0.358</data>
<data key="d1">#a300cc</data>
</edge>
<edge id="e13" source="Jugendliche" target="Projekte">
<data key="d0">0.196</data>
<data key="d1">#0000cc</data>
</edge>
<edge id="e14" source="Kanada" target="Berichterstattung">
<data key="d0">0.198</data>
<data key="d1">#0200cc</data>
</edge>
<edge id="e15" source="Universität" target="Colleges">
<data key="d0">0.39</data>
<data key="d1">#c300cc</data>
</edge>
<edge id="e16" source="Universität" target="University">
<data key="d0">0.196</data>
<data key="d1">#0000cc</data>
</edge>
<edge id="e17" source="Indian" target="First-Nations">
<data key="d0">0.356</data>
<data key="d1">#a100cc</data>
</edge>
<edge id="e18" source="Indian" target="Education">
<data key="d0">0.588</data>
<data key="d1">#cc000c</data>
</edge>
<edge id="e19" source="Secondary" target="Education">
<data key="d0">0.2</data>
<data key="d1">#0400cc</data>
</edge>
<edge id="e20" source="Toronto" target="Schulen">
<data key="d0">0.258</data>
<data key="d1">#3e00cc</data>
</edge>
<edge id="e21" source="Eltern" target="Unterstützung">
<data key="d0">0.196</data>
<data key="d1">#0000cc</data>
</edge>
<edge id="e22" source="Erfahrungen" target="First-Nations">
<data key="d0">0.196</data>
<data key="d1">#0000cc</data>
</edge>
<edge id="e23" source="First-Nations" target="Education">
<data key="d0">0.362</data>
<data key="d1">#a700cc</data>
</edge>
</graph>
</graphml>
